%YAML 1.1
%TAG !u! tag:unity3d.com,2011:
--- !u!1 &1300239201123790069
GameObject:
  m_ObjectHideFlags: 0
  m_CorrespondingSourceObject: {fileID: 0}
  m_PrefabInstance: {fileID: 0}
  m_PrefabAsset: {fileID: 0}
  serializedVersion: 6
  m_Component:
  - component: {fileID: 3575787753124013425}
  - component: {fileID: 7521327828100625650}
  - component: {fileID: 1613062931199521312}
  - component: {fileID: -4266221191389483921}
  m_Layer: 0
  m_Name: ChipHalo
  m_TagString: Untagged
  m_Icon: {fileID: 0}
  m_NavMeshLayer: 0
  m_StaticEditorFlags: 0
  m_IsActive: 1
--- !u!4 &3575787753124013425
Transform:
  m_ObjectHideFlags: 0
  m_CorrespondingSourceObject: {fileID: 0}
  m_PrefabInstance: {fileID: 0}
  m_PrefabAsset: {fileID: 0}
  m_GameObject: {fileID: 1300239201123790069}
  m_LocalRotation: {x: 0, y: 0, z: 0, w: 1}
  m_LocalPosition: {x: 0, y: 0, z: 0}
  m_LocalScale: {x: 3, y: 3, z: 1}
  m_Children: []
  m_Father: {fileID: 0}
  m_RootOrder: 0
  m_LocalEulerAnglesHint: {x: 0, y: 0, z: 0}
--- !u!212 &7521327828100625650
SpriteRenderer:
  m_ObjectHideFlags: 0
  m_CorrespondingSourceObject: {fileID: 0}
  m_PrefabInstance: {fileID: 0}
  m_PrefabAsset: {fileID: 0}
  m_GameObject: {fileID: 1300239201123790069}
  m_Enabled: 1
  m_CastShadows: 0
  m_ReceiveShadows: 0
  m_DynamicOccludee: 1
  m_MotionVectors: 1
  m_LightProbeUsage: 1
  m_ReflectionProbeUsage: 1
  m_RayTracingMode: 0
  m_RayTraceProcedural: 0
  m_RenderingLayerMask: 1
  m_RendererPriority: 0
  m_Materials:
  - {fileID: 2100000, guid: 387bb46f760279d47a26eb06bad08e6c, type: 2}
  m_StaticBatchInfo:
    firstSubMesh: 0
    subMeshCount: 0
  m_StaticBatchRoot: {fileID: 0}
  m_ProbeAnchor: {fileID: 0}
  m_LightProbeVolumeOverride: {fileID: 0}
  m_ScaleInLightmap: 1
  m_ReceiveGI: 1
  m_PreserveUVs: 0
  m_IgnoreNormalsForChartDetection: 0
  m_ImportantGI: 0
  m_StitchLightmapSeams: 1
  m_SelectedEditorRenderState: 0
  m_MinimumChartSize: 4
  m_AutoUVMaxDistance: 0.5
  m_AutoUVMaxAngle: 89
  m_LightmapParameters: {fileID: 0}
  m_SortingLayerID: 0
  m_SortingLayer: 0
  m_SortingOrder: -3229
  m_Sprite: {fileID: 21300000, guid: 8b77d72b14e6b54468516c7d829fbbab, type: 3}
  m_Color: {r: 0.482, g: 0, b: 0, a: 1}
  m_FlipX: 0
  m_FlipY: 0
  m_DrawMode: 0
  m_Size: {x: 0.5688889, y: 0.5688889}
  m_AdaptiveModeThreshold: 0.5
  m_SpriteTileMode: 0
  m_WasSpriteAssigned: 1
  m_MaskInteraction: 0
  m_SpriteSortPoint: 0
--- !u!114 &1613062931199521312
MonoBehaviour:
  m_ObjectHideFlags: 0
  m_CorrespondingSourceObject: {fileID: 0}
  m_PrefabInstance: {fileID: 0}
  m_PrefabAsset: {fileID: 0}
  m_GameObject: {fileID: 1300239201123790069}
  m_Enabled: 1
  m_EditorHideFlags: 0
  m_Script: {fileID: 11500000, guid: 2f45ab2357cc87b48aaf5b7f423f4a4c, type: 3}
  m_Name: 
  m_EditorClassIdentifier: 
  localTime: 1
  unscaledTime: 0
  rotZ: 0
  rotZampl: 0
  rotZfreq: 0
  rotZphase: 0
  rotZvelocity: 0
  rotZoffset: 0
  rotAsix: {x: 0, y: 0, z: 1}
  sizeX: 1
  sizeXampl: 0.5
  sizeXfreq: 4
  sizeY: 1
  sizeYampl: 0.5
  sizeYfreq: 4
  posX: 0
  posXampl: 0
  posXfreq: 0
  posXphase: 0
  posXvelocity: 0
  posY: 0
  posYampl: 0
  posYfreq: 0
  posYphase: 0
  posYvelocity: 0
  alpha: 0
  alphaAmpl: 0
  alphaFreq: 0
  alphaPhase: 0
--- !u!114 &-4266221191389483921
MonoBehaviour:
  m_ObjectHideFlags: 0
  m_CorrespondingSourceObject: {fileID: 0}
  m_PrefabInstance: {fileID: 0}
  m_PrefabAsset: {fileID: 0}
  m_GameObject: {fileID: 1300239201123790069}
  m_Enabled: 1
  m_EditorHideFlags: 0
  m_Script: {fileID: 11500000, guid: c26d07687987139468cc882edb7b3323, type: 3}
  m_Name: 
  m_EditorClassIdentifier: 
  type: 16
