%YAML 1.1
%TAG !u! tag:unity3d.com,2011:
--- !u!1 &1760329853301943123
GameObject:
  m_ObjectHideFlags: 0
  m_CorrespondingSourceObject: {fileID: 0}
  m_PrefabInstance: {fileID: 0}
  m_PrefabAsset: {fileID: 0}
  serializedVersion: 6
  m_Component:
  - component: {fileID: 8774145868569868280}
  - component: {fileID: 9045378208394825195}
  - component: {fileID: 8462859189244514740}
  m_Layer: 0
  m_Name: Icon
  m_TagString: Untagged
  m_Icon: {fileID: 0}
  m_NavMeshLayer: 0
  m_StaticEditorFlags: 0
  m_IsActive: 1
--- !u!4 &8774145868569868280
Transform:
  m_ObjectHideFlags: 0
  m_CorrespondingSourceObject: {fileID: 0}
  m_PrefabInstance: {fileID: 0}
  m_PrefabAsset: {fileID: 0}
  m_GameObject: {fileID: 1760329853301943123}
  m_LocalRotation: {x: 0, y: 0, z: 0, w: 1}
  m_LocalPosition: {x: 0, y: 0, z: 0}
  m_LocalScale: {x: 1, y: 1, z: 1}
  m_Children: []
  m_Father: {fileID: 2761260544432214581}
  m_RootOrder: 0
  m_LocalEulerAnglesHint: {x: 0, y: 0, z: -2.749629}
--- !u!212 &9045378208394825195
SpriteRenderer:
  m_ObjectHideFlags: 0
  m_CorrespondingSourceObject: {fileID: 0}
  m_PrefabInstance: {fileID: 0}
  m_PrefabAsset: {fileID: 0}
  m_GameObject: {fileID: 1760329853301943123}
  m_Enabled: 1
  m_CastShadows: 0
  m_ReceiveShadows: 0
  m_DynamicOccludee: 1
  m_MotionVectors: 1
  m_LightProbeUsage: 1
  m_ReflectionProbeUsage: 1
  m_RayTracingMode: 0
  m_RayTraceProcedural: 0
  m_RenderingLayerMask: 1
  m_RendererPriority: 0
  m_Materials:
  - {fileID: 10754, guid: 0000000000000000f000000000000000, type: 0}
  m_StaticBatchInfo:
    firstSubMesh: 0
    subMeshCount: 0
  m_StaticBatchRoot: {fileID: 0}
  m_ProbeAnchor: {fileID: 0}
  m_LightProbeVolumeOverride: {fileID: 0}
  m_ScaleInLightmap: 1
  m_ReceiveGI: 1
  m_PreserveUVs: 0
  m_IgnoreNormalsForChartDetection: 0
  m_ImportantGI: 0
  m_StitchLightmapSeams: 1
  m_SelectedEditorRenderState: 0
  m_MinimumChartSize: 4
  m_AutoUVMaxDistance: 0.5
  m_AutoUVMaxAngle: 89
  m_LightmapParameters: {fileID: 0}
  m_SortingLayerID: 0
  m_SortingLayer: 0
  m_SortingOrder: 0
  m_Sprite: {fileID: 21300000, guid: d6230606b88a81f419a5bc168589c47e, type: 3}
  m_Color: {r: 1, g: 1, b: 1, a: 1}
  m_FlipX: 0
  m_FlipY: 0
  m_DrawMode: 0
  m_Size: {x: 2.56, y: 2.56}
  m_AdaptiveModeThreshold: 0.5
  m_SpriteTileMode: 0
  m_WasSpriteAssigned: 1
  m_MaskInteraction: 0
  m_SpriteSortPoint: 0
--- !u!114 &8462859189244514740
MonoBehaviour:
  m_ObjectHideFlags: 0
  m_CorrespondingSourceObject: {fileID: 0}
  m_PrefabInstance: {fileID: 0}
  m_PrefabAsset: {fileID: 0}
  m_GameObject: {fileID: 1760329853301943123}
  m_Enabled: 1
  m_EditorHideFlags: 0
  m_Script: {fileID: 11500000, guid: 0c4492af78548544a888d22495b56b6e, type: 3}
  m_Name: 
  m_EditorClassIdentifier: 
  sprites:
  - colorID: 0
    sprite: {fileID: 21300000, guid: d6230606b88a81f419a5bc168589c47e, type: 3}
  - colorID: 1
    sprite: {fileID: 21300000, guid: 252421ebfbdfafc44af3a90f5252d0f7, type: 3}
  - colorID: 2
    sprite: {fileID: 21300000, guid: df19ed159c5c90a4bbc04d266ee25f73, type: 3}
  - colorID: 3
    sprite: {fileID: 21300000, guid: 03e5512d51d6f544a984377faed7f85c, type: 3}
  - colorID: 4
    sprite: {fileID: 21300000, guid: 22a354df9ae64944e83df92b3890563b, type: 3}
  - colorID: 5
    sprite: {fileID: 21300000, guid: d0c9966c60a22b84890e0eff99c3fa9b, type: 3}
  - colorID: 6
    sprite: {fileID: 0}
  - colorID: 7
    sprite: {fileID: 0}
  - colorID: 8
    sprite: {fileID: 0}
  - colorID: 9
    sprite: {fileID: 0}
--- !u!1 &2764171861876952067
GameObject:
  m_ObjectHideFlags: 0
  m_CorrespondingSourceObject: {fileID: 0}
  m_PrefabInstance: {fileID: 0}
  m_PrefabAsset: {fileID: 0}
  serializedVersion: 6
  m_Component:
  - component: {fileID: 2761260544432214581}
  - component: {fileID: 5307553010478413400}
  - component: {fileID: 6703660488506448310}
  - component: {fileID: 2272940558677274224}
  - component: {fileID: 4030541353754976802}
  m_Layer: 0
  m_Name: SimpleChip
  m_TagString: Untagged
  m_Icon: {fileID: 0}
  m_NavMeshLayer: 0
  m_StaticEditorFlags: 0
  m_IsActive: 1
--- !u!4 &2761260544432214581
Transform:
  m_ObjectHideFlags: 0
  m_CorrespondingSourceObject: {fileID: 0}
  m_PrefabInstance: {fileID: 0}
  m_PrefabAsset: {fileID: 0}
  m_GameObject: {fileID: 2764171861876952067}
  m_LocalRotation: {x: 0, y: 0, z: 0, w: 1}
  m_LocalPosition: {x: 0.69999695, y: 0, z: 0}
  m_LocalScale: {x: 1, y: 1, z: 1}
  m_Children:
  - {fileID: 8774145868569868280}
  m_Father: {fileID: 0}
  m_RootOrder: 0
  m_LocalEulerAnglesHint: {x: 0, y: 0, z: 0}
--- !u!114 &5307553010478413400
MonoBehaviour:
  m_ObjectHideFlags: 0
  m_CorrespondingSourceObject: {fileID: 0}
  m_PrefabInstance: {fileID: 0}
  m_PrefabAsset: {fileID: 0}
  m_GameObject: {fileID: 2764171861876952067}
  m_Enabled: 1
  m_EditorHideFlags: 0
  m_Script: {fileID: 11500000, guid: c47b3f1dc4fdf204593834a5e8f0de92, type: 3}
  m_Name: 
  m_EditorClassIdentifier: 
  clips:
  - name: Landing
    clip: ChipLanding
  - name: Destroying
    clip: ChipDestroying
  - name: OnPress
    clip: ChipPressed
  - name: OnUnpress
    clip: ChipUnpressed
--- !u!114 &6703660488506448310
MonoBehaviour:
  m_ObjectHideFlags: 0
  m_CorrespondingSourceObject: {fileID: 0}
  m_PrefabInstance: {fileID: 0}
  m_PrefabAsset: {fileID: 0}
  m_GameObject: {fileID: 2764171861876952067}
  m_Enabled: 1
  m_EditorHideFlags: 0
  m_Script: {fileID: 11500000, guid: 673773fafb2f17e4eaf9b930aaacbe80, type: 3}
  m_Name: 
  m_EditorClassIdentifier: 
  ignoreTimeScale: 0
  clips:
  - name: Awake
    reverse: 0
    clip: {fileID: 7400000, guid: a148c6c8f59a9b04cbfd6148fe96a336, type: 2}
  - name: Destroying
    reverse: 0
    clip: {fileID: 7400000, guid: 4e1096c30685787479cc0c886d7b8ba8, type: 2}
  - name: Flashing
    reverse: 0
    clip: {fileID: 7400000, guid: c88251de1c0b02a4e92b2b34ccb9b47f, type: 2}
  - name: Hide
    reverse: 0
    clip: {fileID: 7400000, guid: 4e1096c30685787479cc0c886d7b8ba8, type: 2}
  - name: OnPress
    reverse: 0
    clip: {fileID: 7400000, guid: 15678458465def948a887c90a4ce60c8, type: 2}
  - name: OnUnpress
    reverse: 0
    clip: {fileID: 7400000, guid: e67785ad080fd734b97453e6d2eb623d, type: 2}
--- !u!114 &2272940558677274224
MonoBehaviour:
  m_ObjectHideFlags: 0
  m_CorrespondingSourceObject: {fileID: 0}
  m_PrefabInstance: {fileID: 0}
  m_PrefabAsset: {fileID: 0}
  m_GameObject: {fileID: 2764171861876952067}
  m_Enabled: 1
  m_EditorHideFlags: 0
  m_Script: {fileID: 11500000, guid: 30e5a438a3872304fb211f0481aead87, type: 3}
  m_Name: 
  m_EditorClassIdentifier: 
--- !u!210 &4030541353754976802
SortingGroup:
  m_ObjectHideFlags: 0
  m_CorrespondingSourceObject: {fileID: 0}
  m_PrefabInstance: {fileID: 0}
  m_PrefabAsset: {fileID: 0}
  m_GameObject: {fileID: 2764171861876952067}
  m_Enabled: 1
  m_SortingLayerID: 1966917811
  m_SortingLayer: 3
  m_SortingOrder: 0
