%YAML 1.1
%TAG !u! tag:unity3d.com,2011:
--- !u!1001 &65946707119412290
PrefabInstance:
  m_ObjectHideFlags: 0
  serializedVersion: 2
  m_Modification:
    m_TransformParent: {fileID: 0}
    m_Modifications:
    - target: {fileID: 2761260544432214581, guid: f7f15b2d876260a42b3fceb69a813897,
        type: 3}
      propertyPath: m_RootOrder
      value: 0
      objectReference: {fileID: 0}
    - target: {fileID: 2761260544432214581, guid: f7f15b2d876260a42b3fceb69a813897,
        type: 3}
      propertyPath: m_LocalPosition.x
      value: 0
      objectReference: {fileID: 0}
    - target: {fileID: 2761260544432214581, guid: f7f15b2d876260a42b3fceb69a813897,
        type: 3}
      propertyPath: m_LocalPosition.y
      value: 0.7
      objectReference: {fileID: 0}
    - target: {fileID: 2761260544432214581, guid: f7f15b2d876260a42b3fceb69a813897,
        type: 3}
      propertyPath: m_LocalPosition.z
      value: 0
      objectReference: {fileID: 0}
    - target: {fileID: 2761260544432214581, guid: f7f15b2d876260a42b3fceb69a813897,
        type: 3}
      propertyPath: m_LocalRotation.w
      value: 1
      objectReference: {fileID: 0}
    - target: {fileID: 2761260544432214581, guid: f7f15b2d876260a42b3fceb69a813897,
        type: 3}
      propertyPath: m_LocalRotation.x
      value: 0
      objectReference: {fileID: 0}
    - target: {fileID: 2761260544432214581, guid: f7f15b2d876260a42b3fceb69a813897,
        type: 3}
      propertyPath: m_LocalRotation.y
      value: 0
      objectReference: {fileID: 0}
    - target: {fileID: 2761260544432214581, guid: f7f15b2d876260a42b3fceb69a813897,
        type: 3}
      propertyPath: m_LocalRotation.z
      value: 0
      objectReference: {fileID: 0}
    - target: {fileID: 2761260544432214581, guid: f7f15b2d876260a42b3fceb69a813897,
        type: 3}
      propertyPath: m_LocalEulerAnglesHint.x
      value: 0
      objectReference: {fileID: 0}
    - target: {fileID: 2761260544432214581, guid: f7f15b2d876260a42b3fceb69a813897,
        type: 3}
      propertyPath: m_LocalEulerAnglesHint.y
      value: 0
      objectReference: {fileID: 0}
    - target: {fileID: 2761260544432214581, guid: f7f15b2d876260a42b3fceb69a813897,
        type: 3}
      propertyPath: m_LocalEulerAnglesHint.z
      value: 0
      objectReference: {fileID: 0}
    - target: {fileID: 2764171861876952067, guid: f7f15b2d876260a42b3fceb69a813897,
        type: 3}
      propertyPath: m_Name
      value: LinedBombV
      objectReference: {fileID: 0}
    - target: {fileID: 5307553010478413400, guid: f7f15b2d876260a42b3fceb69a813897,
        type: 3}
      propertyPath: clips.Array.size
      value: 5
      objectReference: {fileID: 0}
    - target: {fileID: 5307553010478413400, guid: f7f15b2d876260a42b3fceb69a813897,
        type: 3}
      propertyPath: clips.Array.data[0].clip
      value: ChipLanding
      objectReference: {fileID: 0}
    - target: {fileID: 5307553010478413400, guid: f7f15b2d876260a42b3fceb69a813897,
        type: 3}
      propertyPath: clips.Array.data[1].clip
      value: LinedBombDestroying
      objectReference: {fileID: 0}
    - target: {fileID: 5307553010478413400, guid: f7f15b2d876260a42b3fceb69a813897,
        type: 3}
      propertyPath: clips.Array.data[2].clip
      value: LinedBombAwake
      objectReference: {fileID: 0}
    - target: {fileID: 5307553010478413400, guid: f7f15b2d876260a42b3fceb69a813897,
        type: 3}
      propertyPath: clips.Array.data[2].name
      value: Awake
      objectReference: {fileID: 0}
    - target: {fileID: 5307553010478413400, guid: f7f15b2d876260a42b3fceb69a813897,
        type: 3}
      propertyPath: clips.Array.data[3].clip
      value: ChipPressed
      objectReference: {fileID: 0}
    - target: {fileID: 5307553010478413400, guid: f7f15b2d876260a42b3fceb69a813897,
        type: 3}
      propertyPath: clips.Array.data[3].name
      value: OnPress
      objectReference: {fileID: 0}
    - target: {fileID: 5307553010478413400, guid: f7f15b2d876260a42b3fceb69a813897,
        type: 3}
      propertyPath: clips.Array.data[4].clip
      value: ChipUnpressed
      objectReference: {fileID: 0}
    - target: {fileID: 5307553010478413400, guid: f7f15b2d876260a42b3fceb69a813897,
        type: 3}
      propertyPath: clips.Array.data[4].name
      value: OnUnpress
      objectReference: {fileID: 0}
    - target: {fileID: 8462859189244514740, guid: f7f15b2d876260a42b3fceb69a813897,
        type: 3}
      propertyPath: sprites.Array.data[0].sprite
      value: 
      objectReference: {fileID: 21300000, guid: d9557af7e06c68a4abd1b6180a9d5bde,
        type: 3}
    - target: {fileID: 8462859189244514740, guid: f7f15b2d876260a42b3fceb69a813897,
        type: 3}
      propertyPath: sprites.Array.data[1].sprite
      value: 
      objectReference: {fileID: 21300000, guid: 414050cfad62950419af876a609d56b9,
        type: 3}
    - target: {fileID: 8462859189244514740, guid: f7f15b2d876260a42b3fceb69a813897,
        type: 3}
      propertyPath: sprites.Array.data[2].sprite
      value: 
      objectReference: {fileID: 21300000, guid: 134a0e43aec03b440993f21e670f8826,
        type: 3}
    - target: {fileID: 8462859189244514740, guid: f7f15b2d876260a42b3fceb69a813897,
        type: 3}
      propertyPath: sprites.Array.data[3].sprite
      value: 
      objectReference: {fileID: 21300000, guid: e36f64bafd4c4b545b8b60d6cc330257,
        type: 3}
    - target: {fileID: 8462859189244514740, guid: f7f15b2d876260a42b3fceb69a813897,
        type: 3}
      propertyPath: sprites.Array.data[4].sprite
      value: 
      objectReference: {fileID: 21300000, guid: d515af9cdb1167442b77fdf43d1c7a76,
        type: 3}
    - target: {fileID: 8462859189244514740, guid: f7f15b2d876260a42b3fceb69a813897,
        type: 3}
      propertyPath: sprites.Array.data[5].sprite
      value: 
      objectReference: {fileID: 21300000, guid: 6698097a42e14ce4a8bc01ab2dee2578,
        type: 3}
    - target: {fileID: 9045378208394825195, guid: f7f15b2d876260a42b3fceb69a813897,
        type: 3}
      propertyPath: m_Sprite
      value: 
      objectReference: {fileID: 21300000, guid: d9557af7e06c68a4abd1b6180a9d5bde,
        type: 3}
    m_RemovedComponents: []
  m_SourcePrefab: {fileID: 100100000, guid: f7f15b2d876260a42b3fceb69a813897, type: 3}
--- !u!4 &8732001391329207226 stripped
Transform:
  m_CorrespondingSourceObject: {fileID: 8774145868569868280, guid: f7f15b2d876260a42b3fceb69a813897,
    type: 3}
  m_PrefabInstance: {fileID: 65946707119412290}
  m_PrefabAsset: {fileID: 0}
--- !u!1001 &3967584518333069563
PrefabInstance:
  m_ObjectHideFlags: 0
  serializedVersion: 2
  m_Modification:
    m_TransformParent: {fileID: 8732001391329207226}
    m_Modifications:
    - target: {fileID: 1300239201123790069, guid: 426c28f09842421428b27faa9db6c20b,
        type: 3}
      propertyPath: m_Name
      value: ChipHalo
      objectReference: {fileID: 0}
    - target: {fileID: 3575787753124013425, guid: 426c28f09842421428b27faa9db6c20b,
        type: 3}
      propertyPath: m_RootOrder
      value: 0
      objectReference: {fileID: 0}
    - target: {fileID: 3575787753124013425, guid: 426c28f09842421428b27faa9db6c20b,
        type: 3}
      propertyPath: m_LocalPosition.x
      value: 0
      objectReference: {fileID: 0}
    - target: {fileID: 3575787753124013425, guid: 426c28f09842421428b27faa9db6c20b,
        type: 3}
      propertyPath: m_LocalPosition.y
      value: 0
      objectReference: {fileID: 0}
    - target: {fileID: 3575787753124013425, guid: 426c28f09842421428b27faa9db6c20b,
        type: 3}
      propertyPath: m_LocalPosition.z
      value: 0
      objectReference: {fileID: 0}
    - target: {fileID: 3575787753124013425, guid: 426c28f09842421428b27faa9db6c20b,
        type: 3}
      propertyPath: m_LocalRotation.w
      value: 1
      objectReference: {fileID: 0}
    - target: {fileID: 3575787753124013425, guid: 426c28f09842421428b27faa9db6c20b,
        type: 3}
      propertyPath: m_LocalRotation.x
      value: -0
      objectReference: {fileID: 0}
    - target: {fileID: 3575787753124013425, guid: 426c28f09842421428b27faa9db6c20b,
        type: 3}
      propertyPath: m_LocalRotation.y
      value: -0
      objectReference: {fileID: 0}
    - target: {fileID: 3575787753124013425, guid: 426c28f09842421428b27faa9db6c20b,
        type: 3}
      propertyPath: m_LocalRotation.z
      value: -0
      objectReference: {fileID: 0}
    - target: {fileID: 3575787753124013425, guid: 426c28f09842421428b27faa9db6c20b,
        type: 3}
      propertyPath: m_LocalEulerAnglesHint.x
      value: 0
      objectReference: {fileID: 0}
    - target: {fileID: 3575787753124013425, guid: 426c28f09842421428b27faa9db6c20b,
        type: 3}
      propertyPath: m_LocalEulerAnglesHint.y
      value: 0
      objectReference: {fileID: 0}
    - target: {fileID: 3575787753124013425, guid: 426c28f09842421428b27faa9db6c20b,
        type: 3}
      propertyPath: m_LocalEulerAnglesHint.z
      value: 0
      objectReference: {fileID: 0}
    m_RemovedComponents: []
  m_SourcePrefab: {fileID: 100100000, guid: 426c28f09842421428b27faa9db6c20b, type: 3}
