%YAML 1.1
%TAG !u! tag:unity3d.com,2011:
--- !u!1 &2078494947666079203
GameObject:
  m_ObjectHideFlags: 0
  m_CorrespondingSourceObject: {fileID: 0}
  m_PrefabInstance: {fileID: 0}
  m_PrefabAsset: {fileID: 0}
  serializedVersion: 6
  m_Component:
  - component: {fileID: 2078494947666079204}
  - component: {fileID: 2078494947666079208}
  - component: {fileID: 5075968011093431514}
  m_Layer: 5
  m_Name: ComposedButton
  m_TagString: Untagged
  m_Icon: {fileID: 0}
  m_NavMeshLayer: 0
  m_StaticEditorFlags: 0
  m_IsActive: 1
--- !u!224 &2078494947666079204
RectTransform:
  m_ObjectHideFlags: 0
  m_CorrespondingSourceObject: {fileID: 0}
  m_PrefabInstance: {fileID: 0}
  m_PrefabAsset: {fileID: 0}
  m_GameObject: {fileID: 2078494947666079203}
  m_LocalRotation: {x: 0, y: 0, z: 0, w: 1}
  m_LocalPosition: {x: 0, y: 0, z: 0}
  m_LocalScale: {x: 1, y: 1, z: 1}
  m_Children:
  - {fileID: 7888985889936668843}
  m_Father: {fileID: 0}
  m_RootOrder: 0
  m_LocalEulerAnglesHint: {x: 0, y: 0, z: 0}
  m_AnchorMin: {x: 0, y: 0}
  m_AnchorMax: {x: 0, y: 0}
  m_AnchoredPosition: {x: 0, y: 0}
  m_SizeDelta: {x: 0, y: 100}
  m_Pivot: {x: 0.5, y: 0.5}
--- !u!114 &2078494947666079208
MonoBehaviour:
  m_ObjectHideFlags: 0
  m_CorrespondingSourceObject: {fileID: 0}
  m_PrefabInstance: {fileID: 0}
  m_PrefabAsset: {fileID: 0}
  m_GameObject: {fileID: 2078494947666079203}
  m_Enabled: 1
  m_EditorHideFlags: 0
  m_Script: {fileID: 11500000, guid: 306cc8c2b49d7114eaa3623786fc2126, type: 3}
  m_Name: 
  m_EditorClassIdentifier: 
  m_IgnoreLayout: 0
  m_MinWidth: -1
  m_MinHeight: -1
  m_PreferredWidth: -1
  m_PreferredHeight: 100
  m_FlexibleWidth: 1
  m_FlexibleHeight: -1
  m_LayoutPriority: 1
--- !u!114 &5075968011093431514
MonoBehaviour:
  m_ObjectHideFlags: 0
  m_CorrespondingSourceObject: {fileID: 0}
  m_PrefabInstance: {fileID: 0}
  m_PrefabAsset: {fileID: 0}
  m_GameObject: {fileID: 2078494947666079203}
  m_Enabled: 1
  m_EditorHideFlags: 0
  m_Script: {fileID: 11500000, guid: 8fec5b92a3e52644081c0776a57e306f, type: 3}
  m_Name: 
  m_EditorClassIdentifier: 
  button: {fileID: 7888985889936668842}
--- !u!1001 &3850147036308530361
PrefabInstance:
  m_ObjectHideFlags: 0
  serializedVersion: 2
  m_Modification:
    m_TransformParent: {fileID: 2078494947666079204}
    m_Modifications:
    - target: {fileID: 6347039216845659153, guid: b88234037ad4e1749ab9301edc218fc1,
        type: 3}
      propertyPath: m_Name
      value: Button
      objectReference: {fileID: 0}
    - target: {fileID: 6347039216845659154, guid: b88234037ad4e1749ab9301edc218fc1,
        type: 3}
      propertyPath: m_Pivot.x
      value: 0.5
      objectReference: {fileID: 0}
    - target: {fileID: 6347039216845659154, guid: b88234037ad4e1749ab9301edc218fc1,
        type: 3}
      propertyPath: m_Pivot.y
      value: 0.5
      objectReference: {fileID: 0}
    - target: {fileID: 6347039216845659154, guid: b88234037ad4e1749ab9301edc218fc1,
        type: 3}
      propertyPath: m_RootOrder
      value: 0
      objectReference: {fileID: 0}
    - target: {fileID: 6347039216845659154, guid: b88234037ad4e1749ab9301edc218fc1,
        type: 3}
      propertyPath: m_AnchorMax.x
      value: 0.5
      objectReference: {fileID: 0}
    - target: {fileID: 6347039216845659154, guid: b88234037ad4e1749ab9301edc218fc1,
        type: 3}
      propertyPath: m_AnchorMax.y
      value: 1
      objectReference: {fileID: 0}
    - target: {fileID: 6347039216845659154, guid: b88234037ad4e1749ab9301edc218fc1,
        type: 3}
      propertyPath: m_AnchorMin.x
      value: 0.5
      objectReference: {fileID: 0}
    - target: {fileID: 6347039216845659154, guid: b88234037ad4e1749ab9301edc218fc1,
        type: 3}
      propertyPath: m_AnchorMin.y
      value: 0
      objectReference: {fileID: 0}
    - target: {fileID: 6347039216845659154, guid: b88234037ad4e1749ab9301edc218fc1,
        type: 3}
      propertyPath: m_SizeDelta.x
      value: 250
      objectReference: {fileID: 0}
    - target: {fileID: 6347039216845659154, guid: b88234037ad4e1749ab9301edc218fc1,
        type: 3}
      propertyPath: m_SizeDelta.y
      value: 0
      objectReference: {fileID: 0}
    - target: {fileID: 6347039216845659154, guid: b88234037ad4e1749ab9301edc218fc1,
        type: 3}
      propertyPath: m_LocalPosition.x
      value: 0
      objectReference: {fileID: 0}
    - target: {fileID: 6347039216845659154, guid: b88234037ad4e1749ab9301edc218fc1,
        type: 3}
      propertyPath: m_LocalPosition.y
      value: 0
      objectReference: {fileID: 0}
    - target: {fileID: 6347039216845659154, guid: b88234037ad4e1749ab9301edc218fc1,
        type: 3}
      propertyPath: m_LocalPosition.z
      value: 0
      objectReference: {fileID: 0}
    - target: {fileID: 6347039216845659154, guid: b88234037ad4e1749ab9301edc218fc1,
        type: 3}
      propertyPath: m_LocalRotation.w
      value: 1
      objectReference: {fileID: 0}
    - target: {fileID: 6347039216845659154, guid: b88234037ad4e1749ab9301edc218fc1,
        type: 3}
      propertyPath: m_LocalRotation.x
      value: -0
      objectReference: {fileID: 0}
    - target: {fileID: 6347039216845659154, guid: b88234037ad4e1749ab9301edc218fc1,
        type: 3}
      propertyPath: m_LocalRotation.y
      value: -0
      objectReference: {fileID: 0}
    - target: {fileID: 6347039216845659154, guid: b88234037ad4e1749ab9301edc218fc1,
        type: 3}
      propertyPath: m_LocalRotation.z
      value: -0
      objectReference: {fileID: 0}
    - target: {fileID: 6347039216845659154, guid: b88234037ad4e1749ab9301edc218fc1,
        type: 3}
      propertyPath: m_AnchoredPosition.x
      value: 0
      objectReference: {fileID: 0}
    - target: {fileID: 6347039216845659154, guid: b88234037ad4e1749ab9301edc218fc1,
        type: 3}
      propertyPath: m_AnchoredPosition.y
      value: 0
      objectReference: {fileID: 0}
    - target: {fileID: 6347039216845659154, guid: b88234037ad4e1749ab9301edc218fc1,
        type: 3}
      propertyPath: m_LocalEulerAnglesHint.x
      value: 0
      objectReference: {fileID: 0}
    - target: {fileID: 6347039216845659154, guid: b88234037ad4e1749ab9301edc218fc1,
        type: 3}
      propertyPath: m_LocalEulerAnglesHint.y
      value: 0
      objectReference: {fileID: 0}
    - target: {fileID: 6347039216845659154, guid: b88234037ad4e1749ab9301edc218fc1,
        type: 3}
      propertyPath: m_LocalEulerAnglesHint.z
      value: 0
      objectReference: {fileID: 0}
    m_RemovedComponents: []
  m_SourcePrefab: {fileID: 100100000, guid: b88234037ad4e1749ab9301edc218fc1, type: 3}
--- !u!224 &7888985889936668843 stripped
RectTransform:
  m_CorrespondingSourceObject: {fileID: 6347039216845659154, guid: b88234037ad4e1749ab9301edc218fc1,
    type: 3}
  m_PrefabInstance: {fileID: 3850147036308530361}
  m_PrefabAsset: {fileID: 0}
--- !u!114 &7888985889936668842 stripped
MonoBehaviour:
  m_CorrespondingSourceObject: {fileID: 6347039216845659155, guid: b88234037ad4e1749ab9301edc218fc1,
    type: 3}
  m_PrefabInstance: {fileID: 3850147036308530361}
  m_PrefabAsset: {fileID: 0}
  m_GameObject: {fileID: 0}
  m_Enabled: 1
  m_EditorHideFlags: 0
  m_Script: {fileID: 11500000, guid: a8a498690a76dd6458119d24033951ea, type: 3}
  m_Name: 
  m_EditorClassIdentifier: 
